{
  "dockerComposeFile": "docker-compose.yml",
  "service": "dev",
  "workspaceFolder": "/workspace",
  "postCreateCommand": "dotnet restore",

  "extensions": [
    "ionide.ionide-fsharp"
  ],

  "settings": {
    "files.exclude": {
      "**/.git": true,
      "**/bin": true,
      "**/obj": true
    },

    "FSharp.fsacRuntime": "netcore",
    "FSharp.suggestGitignore": false
  }
}
